{
    "version": "0.1.0",
    "personal": {
        "name": "John Doe",
        "birthday": "01.01.2000",
        "birthplace": "Bismarck",
        "citizenship": "USA",
        "marital_status": "single"
    },
    "contacts": [
        {
            "type": "website",
            "value": "www.website.org"
        },
        {
            "type": "email",
            "value": "john.doe@provider.org"
        },
        {
            "type": "mobile",
            "value": "+1 (0)XXXX XXXXXX "
        }
    ],
    "residences": [
        {
            "street": "Mainstreet",
            "city": "Healdsburg",
            "postal_code": "95448",
            "state": "California",
            "country": "USA",
            "time": [
                2000,
                2019
            ]
        }
    ],
    "skills": [
        {
            "type": "Language",
            "name": "Spanish",
            "value": 9
        }
    ],
    "events": [
        {
            "type": "School",
            "name": "Healdsburg Elementary",
            "description": "",
            "time": [
                1996,
                2000
            ],
            "exclude": true
        }
    ]
}